…
```{.output}

/// Epidemiological Contacts //

  // class: epicontacts
  // 166 cases in linelist; 60 contacts;  non directed 

  // linelist

# A tibble: 166 × 11
   id     generacion fecha_de_infeccion fecha_inicio_sintomas
   <chr>       <dbl> <date>             <date>               
 1 d1fafd          0 NA                 2014-04-07           
 2 53371b          1 2014-04-09         2014-04-15           
 3 f5c3d8          1 2014-04-18         2014-04-21           
 4 6c286a          2 NA                 2014-04-27           
 5 0f58c4          2 2014-04-22         2014-04-26           
 6 49731d          0 2014-03-19         2014-04-25           
 7 f9149b          3 NA                 2014-05-03           
 8 881bd4          3 2014-04-26         2014-05-01           
 9 e66fa4          2 NA                 2014-04-21           
10 20b688          3 NA                 2014-05-05           
# ℹ 156 more rows
# ℹ 7 more variables: fecha_de_hospitalizacion <date>, fecha_desenlace <date>,
#   desenlace <chr>, genero <fct>, hospital <fct>, longitud <dbl>,
#   latitud <dbl>

  // contacts

# A tibble: 60 × 3
   from   to     fuente 
   <chr>  <chr>  <chr>  
 1 d1fafd 53371b otro   
 2 f5c3d8 0f58c4 otro   
 3 0f58c4 881bd4 otro   
 4 f5c3d8 d58402 otro   
 5 20b688 d8a13d funeral
 6 2ae019 a3c8b8 otro   
 7 20b688 974bc1 funeral
 8 2ae019 72b905 funeral
 9 40ae5f b8f2fd funeral
10 f1f60f 09e386 otro   
# ℹ 50 more rows
```
…
